<svg xmlns="http://www.w3.org/2000/svg" viewBox="0 0 191.74 80.85" class="svg-height svg-width">
	<defs>
		<style>
			.jhasbv-cls-1,
			.akijsbsa-cls-2{
                fill:none;
                stroke-linecap:round;
                stroke-linejoin:round;
                stroke-width:2px;
            }
            
            
            .akijsbsa-cls-2{
                stroke:#000;
            }
		</style>
	</defs>
	<g id="Camada_2" data-name="Camada 2">
		<g id="Camada_2-2" data-name="Camada 2">
			<rect class="jhasbv-cls-1" x="69.25" y="-15.95" width="53.23" height="121.18" transform="translate(140.51 -51.23) rotate(90)" />
			<rect class="akijsbsa-cls-2 pattern-cabeceira-lisa-corpo" x="36.41" y="19.16" width="118.92" height="50.96" />
			<path class="akijsbsa-cls-2" d="M155.33,19.16a37,37,0,0,1,15.84-7.44c9.57-1.91,10-6.51,16.08-10.72" />
			<path class="akijsbsa-cls-2" d="M155.33,70.12a37.15,37.15,0,0,1,16.46,5.94c8.12,5.42,11.64,2.44,19,3.79" />
			<path class="akijsbsa-cls-2" d="M36.41,19.16a37,37,0,0,0-15.84-7.44C11,9.81,10.62,5.21,4.49,1" />
			<path class="akijsbsa-cls-2" d="M36.41,70.12A37.15,37.15,0,0,0,20,76.06C11.83,81.48,8.31,78.5,1,79.85" />
		</g>
	</g>
</svg>
