<svg xmlns="http://www.w3.org/2000/svg" viewBox="0 0 218.55 60" class="svg-width svg-height">
	<defs>
		<style>
			.mcppdj-cls-1,.mcppdj-cls-2,.mcppdj-cls-3,.mcdppdj-cls-5{
			fill:none;
			}
			.mcppdj-cls-1{
			stroke: none;
			}
			.mcppdj-cls-1,.mcppdj-cls-2,.mcdppdj-cls-5{
			stroke-linecap:round;stroke-linejoin:round;
			}
			.mcppdj-cls-1,.mcppdj-cls-2{
			stroke-width:1.5px;
			}
			.mcppdj-cls-2,.mcdppdj-cls-5{
			stroke:#000;
			}
			
			.mcdppdj-cls-5{
			stroke-width:2px;
			}
		</style>
	</defs>
	<g id="Camada_2" data-name="Camada 2">
		<g id="Camada_2-2" data-name="Camada 2">
			<path class="mcppdj-cls-1 pattern-rolo-lateral-2-faixas-bordas" d="M206.28,51.5C200.72,51.5,196,41.65,196,30s4.69-21.5,10.25-21.5,10.25,9.85,10.25,21.5S211.83,51.5,206.28,51.5Z" />
			<path class="mcppdj-cls-1 pattern-rolo-lateral-2-faixas-bordas" d="M18.71,51.5C13.16,51.5,8.46,41.65,8.46,30S13.16,8.5,18.71,8.5,29,18.35,29,30,24.27,51.5,18.71,51.5Z" />
			<path class="mcppdj-cls-2 pattern-rolo-lateral-2-faixas-corpo" d="M135.92,52.5c-6.22,0-11.25-10.07-11.25-22.5s5-22.5,11.25-22.5H88.82C82.61,7.5,77.57,17.57,77.57,30s5,22.5,11.25,22.5Z" />
			<path class="mcppdj-cls-3"  d="M0,30A46.69,46.69,0,0,0,2.69,46l14.06-5.22a27.52,27.52,0,0,1-1.32-5.15A39.93,39.93,0,0,1,15,30Z" />
			<path class="cls-4" d="M9.2,39.86l-1.46.37c.18.84.47,1.66.71,2.5l1.43-.48C9.65,41.46,9.37,40.68,9.2,39.86Z" />
			<path class="cls-4" d="M8.38,35.47l-1.49.19c.1.85.24,1.71.41,2.55l1.47-.28C8.61,37.12,8.47,36.3,8.38,35.47Z" />
			<polygon class="cls-4" points="8.06 31.02 6.56 31.05 6.59 32.34 6.69 33.63 8.18 33.51 8.09 32.27 8.06 31.02" />
			<path class="mcppdj-cls-3" d="M2.69,46a27.39,27.39,0,0,0,4.56,8.15,17.54,17.54,0,0,0,2.36,2.36,17.79,17.79,0,0,0,2.78,1.87,12.46,12.46,0,0,0,3.1,1.15,16.36,16.36,0,0,0,3.26.49V44.52l0-.05a13,13,0,0,1-2-3.71Z" />
			<path class="cls-4" d="M15.64,51,15,52.36c.42.21.84.44,1.27.63s.9.29,1.37.37l.19-1.52a9.05,9.05,0,0,1-1.13-.32C16.33,51.36,16,51.17,15.64,51Z" />
			<path class="cls-4" d="M12.66,48l-1.23.86a9.21,9.21,0,0,0,.82,1.07l.45.54.52.49,1-1.14-.43-.4L13.4,49A7.66,7.66,0,0,1,12.66,48Z" />
			<path class="cls-4" d="M10.57,44.13l-1.39.57a25.88,25.88,0,0,0,1.15,2.37l1.31-.72A23.9,23.9,0,0,1,10.57,44.13Z" />
			<path class="mcppdj-cls-3" d="M18.75,60A16.36,16.36,0,0,0,22,59.51a12.61,12.61,0,0,0,3.1-1.15,18.28,18.28,0,0,0,2.78-1.87,17.54,17.54,0,0,0,2.36-2.36A27.39,27.39,0,0,0,34.81,46L20.75,40.76a13,13,0,0,1-2,3.71l0,.05Z" />
			<path class="cls-4" d="M25.87,46.33l1.31.72c.46-.76.77-1.58,1.15-2.37l-1.39-.57C26.59,44.85,26.29,45.63,25.87,46.33Z" />
			<path class="cls-4" d="M23.31,49.82l1,1.14.51-.5.46-.54a12.13,12.13,0,0,0,.82-1.07L24.85,48a8.74,8.74,0,0,1-.74,1l-.38.46Z" />
			<path class="cls-4" d="M19.7,51.84l.2,1.51c.46-.08.91-.25,1.37-.37s.85-.41,1.27-.63L21.88,51l-1.05.54C20.45,51.62,20.09,51.77,19.7,51.84Z" />
			<path class="mcppdj-cls-3" d="M34.81,46A46.69,46.69,0,0,0,37.5,30h-15a41.49,41.49,0,0,1-.43,5.61,27.52,27.52,0,0,1-1.32,5.15Z" />
			<path class="cls-4" d="M29.32,33.49l1.49.12c.08-.86.12-1.72.13-2.58l-1.5,0C29.44,31.83,29.4,32.66,29.32,33.49Z" />
			<path class="cls-4" d="M28.73,37.92l1.47.28c.17-.84.31-1.7.4-2.55l-1.48-.19C29,36.29,28.89,37.11,28.73,37.92Z" />
			<path class="cls-4" d="M27.63,42.23l1.42.47c.25-.83.53-1.65.71-2.5l-1.45-.36C28.14,40.65,27.86,41.43,27.63,42.23Z" />
			<path class="mcppdj-cls-3" d="M37.5,30a46.69,46.69,0,0,0-2.69-16L20.75,19.24a27.52,27.52,0,0,1,1.32,5.15A41.49,41.49,0,0,1,22.5,30Z" />
			<path class="cls-4" d="M28.3,20.14l1.46-.37c-.18-.84-.47-1.67-.71-2.5l-1.43.47C27.85,18.54,28.13,19.32,28.3,20.14Z" />
			<path class="cls-4" d="M29.12,24.53l1.48-.19c-.09-.86-.23-1.71-.4-2.56l-1.47.29C28.89,22.88,29,23.7,29.12,24.53Z" />
			<polygon class="cls-4" points="29.44 28.98 30.94 28.95 30.91 27.66 30.81 26.37 29.32 26.49 29.41 27.73 29.44 28.98" />
			<path class="mcppdj-cls-3" d="M34.81,14a27.39,27.39,0,0,0-4.56-8.15,17.33,17.33,0,0,0-5.14-4.23A12.21,12.21,0,0,0,22,.49,16.36,16.36,0,0,0,18.75,0V15.48l0,0a13,13,0,0,1,2,3.71Z" />
			<path class="cls-4" d="M21.86,9l.65-1.36c-.42-.21-.84-.44-1.27-.63s-.9-.29-1.37-.37l-.19,1.52c.38.06.75.21,1.13.31Z" />
			<path class="cls-4" d="M24.84,12l1.23-.86a10.47,10.47,0,0,0-.82-1.07l-.46-.54L24.28,9l-1,1.14.43.41.37.46A8.74,8.74,0,0,1,24.84,12Z" />
			<path class="cls-4" d="M26.93,15.87l1.39-.58c-.38-.79-.7-1.6-1.15-2.37l-1.32.73A21.67,21.67,0,0,1,26.93,15.87Z" />
			<path class="mcppdj-cls-3" d="M18.75,0a16.36,16.36,0,0,0-3.26.49,12.08,12.08,0,0,0-3.1,1.15A17.12,17.12,0,0,0,9.61,3.51,17.54,17.54,0,0,0,7.25,5.87,27.39,27.39,0,0,0,2.69,14l14.06,5.22a13,13,0,0,1,2-3.71l0,0Z" />
			<path class="cls-4" d="M11.63,13.67,10.32,13a23.52,23.52,0,0,0-1.15,2.37l1.39.57C10.91,15.15,11.21,14.37,11.63,13.67Z" />
			<path class="cls-4" d="M14.19,10.18,13.21,9l-.51.5-.46.54a10.47,10.47,0,0,0-.82,1.07l1.23.86a9.93,9.93,0,0,1,.74-1l.38-.45Z" />
			<path class="cls-4" d="M17.79,8.16,17.6,6.65c-.47.08-.91.25-1.37.37s-.85.41-1.27.63L15.62,9l1.05-.54C17,8.38,17.41,8.23,17.79,8.16Z" />
			<path class="mcppdj-cls-3" d="M2.69,14A46.69,46.69,0,0,0,0,30H15a39.93,39.93,0,0,1,.43-5.61,27.52,27.52,0,0,1,1.32-5.15Z" />
			<path class="cls-4" d="M8.18,26.51l-1.5-.12Q6.56,27.68,6.56,29l1.49,0C8.06,28.17,8.1,27.34,8.18,26.51Z" />
			<path class="cls-4" d="M8.77,22.08,7.3,21.79c-.17.85-.31,1.7-.41,2.56l1.49.19C8.47,23.71,8.61,22.89,8.77,22.08Z" />
			<path class="cls-4" d="M9.87,17.77,8.44,17.3c-.24.83-.53,1.65-.71,2.5l1.46.36C9.36,19.35,9.64,18.56,9.87,17.77Z" />
			<ellipse class="mcdppdj-cls-5"  cx="206.28" cy="30" rx="11.25" ry="22.5" />
			<path class="mcppdj-cls-2"  d="M11,13.66C8.85,17.76,7.5,23.56,7.5,30c0,12.43,5,22.5,11.25,22.5H206.56c6.21,0,11.24-10.08,11.24-22.5s-5-22.5-11.25-22.5H18.75C15.75,7.5,13,9.84,11,13.66Z" />
			<path class="mcppdj-cls-2 pattern-rolo-lateral-2-faixas-faixas"  d="M146.93,52.5c-6.21,0-11.25-10.07-11.25-22.5s5-22.5,11.25-22.5h-11c-6.22,0-11.25,10.07-11.25,22.5s5,22.5,11.25,22.5Z" />
			<path class="mcppdj-cls-2 pattern-rolo-lateral-2-faixas-faixas"  d="M88.88,52.5c-6.21,0-11.25-10.07-11.25-22.5s5-22.5,11.25-22.5h-11C71.65,7.5,66.62,17.57,66.62,30s5,22.5,11.25,22.5Z" />
			<path class="mcppdj-cls-2 pattern-rolo-lateral-2-faixas-corpo" d="M77.92,52.5H18.58C12.36,52.5,7.33,42.43,7.33,30s5-22.5,11.25-22.5h59.3C71.67,7.5,66.63,17.57,66.63,30s5,22.5,11.25,22.5" />
			<path class="mcppdj-cls-2 pattern-rolo-lateral-2-faixas-corpo" d="M206.19,52.5H146.84c-6.21,0-11.25-10.07-11.25-22.5s5-22.5,11.25-22.5h59.31c-6.21,0-11.25,10.07-11.25,22.5s5,22.5,11.25,22.5" />
		</g>
	</g>
</svg>
